{
  "data": {
    "curPage": 2,
    "datas": [
      {
        "apkLink": "",
        "audit": 1,
        "author": "",
        "canEdit": false,
        "chapterId": 494,
        "chapterName": "广场",
        "collect": false,
        "courseId": 13,
        "desc": "",
        "descMd": "",
        "envelopePic": "",
        "fresh": false,
        "id": 16320,
        "link": "https://juejin.cn/post/6901997025106067470",
        "niceDate": "2天前",
        "niceShareDate": "2天前",
        "origin": "",
        "prefix": "",
        "projectLink": "",
        "publishTime": 1607143909000,
        "realSuperChapterId": 493,
        "selfVisible": 0,
        "shareDate": 1607143909000,
        "shareUser": "鸿洋",
        "superChapterId": 494,
        "superChapterName": "广场Tab",
        "tags": [],
        "title": "一次Android卡屏的分析",
        "type": 0,
        "userId": 2,
        "visible": 0,
        "zan": 0
      },
      {
        "apkLink": "",
        "audit": 1,
        "author": "",
        "canEdit": false,
        "chapterId": 494,
        "chapterName": "广场",
        "collect": false,
        "courseId": 13,
        "desc": "",
        "descMd": "",
        "envelopePic": "",
        "fresh": false,
        "id": 16319,
        "link": "https://juejin.cn/post/6902009428633698312",
        "niceDate": "2天前",
        "niceShareDate": "2天前",
        "origin": "",
        "prefix": "",
        "projectLink": "",
        "publishTime": 1607141658000,
        "realSuperChapterId": 493,
        "selfVisible": 0,
        "shareDate": 1607141658000,
        "shareUser": "goweii",
        "superChapterId": 494,
        "superChapterName": "广场Tab",
        "tags": [],
        "title": "Jetpack新成员，一篇文章带你玩转Hilt和依赖注入",
        "type": 0,
        "userId": 20382,
        "visible": 0,
        "zan": 0
      },
      {
        "apkLink": "",
        "audit": 1,
        "author": "",
        "canEdit": false,
        "chapterId": 494,
        "chapterName": "广场",
        "collect": false,
        "courseId": 13,
        "desc": "",
        "descMd": "",
        "envelopePic": "",
        "fresh": false,
        "id": 16318,
        "link": "https://www.jianshu.com/p/15a0df736e52",
        "niceDate": "2天前",
        "niceShareDate": "2天前",
        "origin": "",
        "prefix": "",
        "projectLink": "",
        "publishTime": 1607128641000,
        "realSuperChapterId": 493,
        "selfVisible": 0,
        "shareDate": 1607128641000,
        "shareUser": "AprilEyon",
        "superChapterId": 494,
        "superChapterName": "广场Tab",
        "tags": [],
        "title": "炼狱难度！腾讯Android高级岗：为什么 Activity.finish() 之后 10s 才 onDestroy ？",
        "type": 0,
        "userId": 3559,
        "visible": 0,
        "zan": 0
      },
      {
        "apkLink": "",
        "audit": 1,
        "author": "",
        "canEdit": false,
        "chapterId": 494,
        "chapterName": "广场",
        "collect": false,
        "courseId": 13,
        "desc": "",
        "descMd": "",
        "envelopePic": "",
        "fresh": false,
        "id": 16313,
        "link": "https://juejin.cn/post/6902226860080529421",
        "niceDate": "2020-12-04 19:24",
        "niceShareDate": "2020-12-04 19:24",
        "origin": "",
        "prefix": "",
        "projectLink": "",
        "publishTime": 1607081052000,
        "realSuperChapterId": 493,
        "selfVisible": 0,
        "shareDate": 1607081052000,
        "shareUser": "深红骑士",
        "superChapterId": 494,
        "superChapterName": "广场Tab",
        "tags": [],
        "title": "Kotlin Android Extensions 的未来计划",
        "type": 0,
        "userId": 29303,
        "visible": 0,
        "zan": 0
      },
      {
        "apkLink": "",
        "audit": 1,
        "author": "",
        "canEdit": false,
        "chapterId": 494,
        "chapterName": "广场",
        "collect": false,
        "courseId": 13,
        "desc": "",
        "descMd": "",
        "envelopePic": "",
        "fresh": false,
        "id": 16311,
        "link": "https://blog.csdn.net/sunny2come/article/details/110483227?utm_medium=distribute.pc_category.none-task-blog-hot-7.nonecase&amp;depth_1-utm_source=distribute.pc_category.none-task-blog-hot-7.nonecase",
        "niceDate": "2020-12-04 11:49",
        "niceShareDate": "2020-12-04 11:49",
        "origin": "",
        "prefix": "",
        "projectLink": "",
        "publishTime": 1607053796000,
        "realSuperChapterId": 493,
        "selfVisible": 0,
        "shareDate": 1607053796000,
        "shareUser": "AprilEyon",
        "superChapterId": 494,
        "superChapterName": "广场Tab",
        "tags": [],
        "title": "Android 进阶 APP优化 包体积优化",
        "type": 0,
        "userId": 3559,
        "visible": 0,
        "zan": 0
      },
      {
        "apkLink": "",
        "audit": 1,
        "author": "",
        "canEdit": false,
        "chapterId": 494,
        "chapterName": "广场",
        "collect": false,
        "courseId": 13,
        "desc": "",
        "descMd": "",
        "envelopePic": "",
        "fresh": false,
        "id": 16306,
        "link": "https://blog.csdn.net/weixin_41415009/article/details/110569588",
        "niceDate": "2020-12-03 23:22",
        "niceShareDate": "2020-12-03 23:22",
        "origin": "",
        "prefix": "",
        "projectLink": "",
        "publishTime": 1607008975000,
        "realSuperChapterId": 493,
        "selfVisible": 0,
        "shareDate": 1607008975000,
        "shareUser": "sheele",
        "superChapterId": 494,
        "superChapterName": "广场Tab",
        "tags": [],
        "title": "教练 这个开源项目我也想学 GKD",
        "type": 0,
        "userId": 22830,
        "visible": 0,
        "zan": 0
      },
      {
        "apkLink": "",
        "audit": 1,
        "author": "",
        "canEdit": false,
        "chapterId": 494,
        "chapterName": "广场",
        "collect": false,
        "courseId": 13,
        "desc": "",
        "descMd": "",
        "envelopePic": "",
        "fresh": false,
        "id": 16302,
        "link": "https://blog.csdn.net/weixin_44139159/article/details/110389662?utm_medium=distribute.pc_category.none-task-blog-hot-14.nonecase&amp;depth_1-utm_source=distribute.pc_category.none-task-blog-hot-14.nonecase",
        "niceDate": "2020-12-03 09:15",
        "niceShareDate": "2020-12-03 09:15",
        "origin": "",
        "prefix": "",
        "projectLink": "",
        "publishTime": 1606958143000,
        "realSuperChapterId": 493,
        "selfVisible": 0,
        "shareDate": 1606958143000,
        "shareUser": "AprilEyon",
        "superChapterId": 494,
        "superChapterName": "广场Tab",
        "tags": [],
        "title": "RecyclerView框架&mdash;&mdash;BRVAH3.x使用指南",
        "type": 0,
        "userId": 3559,
        "visible": 0,
        "zan": 0
      },
      {
        "apkLink": "",
        "audit": 1,
        "author": "",
        "canEdit": false,
        "chapterId": 494,
        "chapterName": "广场",
        "collect": false,
        "courseId": 13,
        "desc": "",
        "descMd": "",
        "envelopePic": "",
        "fresh": false,
        "id": 16301,
        "link": "https://juejin.cn/post/6898234461361307655/",
        "niceDate": "2020-12-03 08:38",
        "niceShareDate": "2020-12-03 08:38",
        "origin": "",
        "prefix": "",
        "projectLink": "",
        "publishTime": 1606955905000,
        "realSuperChapterId": 493,
        "selfVisible": 0,
        "shareDate": 1606955905000,
        "shareUser": "goweii",
        "superChapterId": 494,
        "superChapterName": "广场Tab",
        "tags": [],
        "title": "安卓navigation系列&mdash;&mdash;入门篇",
        "type": 0,
        "userId": 20382,
        "visible": 0,
        "zan": 0
      },
      {
        "apkLink": "",
        "audit": 1,
        "author": "",
        "canEdit": false,
        "chapterId": 494,
        "chapterName": "广场",
        "collect": false,
        "courseId": 13,
        "desc": "",
        "descMd": "",
        "envelopePic": "",
        "fresh": false,
        "id": 16295,
        "link": "https://www.jianshu.com/p/cc91f17aa91e",
        "niceDate": "2020-12-02 19:43",
        "niceShareDate": "2020-12-02 19:43",
        "origin": "",
        "prefix": "",
        "projectLink": "",
        "publishTime": 1606909392000,
        "realSuperChapterId": 493,
        "selfVisible": 0,
        "shareDate": 1606909392000,
        "shareUser": "深红骑士",
        "superChapterId": 494,
        "superChapterName": "广场Tab",
        "tags": [],
        "title": "八个类搞定 Android 插件化&mdash;&mdash; Activity 终极化实现方案",
        "type": 0,
        "userId": 29303,
        "visible": 0,
        "zan": 0
      },
      {
        "apkLink": "",
        "audit": 1,
        "author": "",
        "canEdit": false,
        "chapterId": 494,
        "chapterName": "广场",
        "collect": false,
        "courseId": 13,
        "desc": "",
        "descMd": "",
        "envelopePic": "",
        "fresh": false,
        "id": 16294,
        "link": "https://juejin.cn/post/6901453354463920135",
        "niceDate": "2020-12-02 14:04",
        "niceShareDate": "2020-12-02 14:04",
        "origin": "",
        "prefix": "",
        "projectLink": "",
        "publishTime": 1606889046000,
        "realSuperChapterId": 493,
        "selfVisible": 0,
        "shareDate": 1606889046000,
        "shareUser": "goweii",
        "superChapterId": 494,
        "superChapterName": "广场Tab",
        "tags": [],
        "title": "【译】2020 年 Fragment 更新文档（下），该更新知识库啦",
        "type": 0,
        "userId": 20382,
        "visible": 0,
        "zan": 0
      },
      {
        "apkLink": "",
        "audit": 1,
        "author": "",
        "canEdit": false,
        "chapterId": 494,
        "chapterName": "广场",
        "collect": false,
        "courseId": 13,
        "desc": "",
        "descMd": "",
        "envelopePic": "",
        "fresh": false,
        "id": 16293,
        "link": "https://blog.csdn.net/huangliniqng/article/details/82187966",
        "niceDate": "2020-12-02 08:41",
        "niceShareDate": "2020-12-02 08:41",
        "origin": "",
        "prefix": "",
        "projectLink": "",
        "publishTime": 1606869665000,
        "realSuperChapterId": 493,
        "selfVisible": 0,
        "shareDate": 1606869665000,
        "shareUser": "AprilEyon",
        "superChapterId": 494,
        "superChapterName": "广场Tab",
        "tags": [],
        "title": "Android蓝牙开发（二）之蓝牙配对和蓝牙连接",
        "type": 0,
        "userId": 3559,
        "visible": 0,
        "zan": 0
      },
      {
        "apkLink": "",
        "audit": 1,
        "author": "",
        "canEdit": false,
        "chapterId": 494,
        "chapterName": "广场",
        "collect": false,
        "courseId": 13,
        "desc": "",
        "descMd": "",
        "envelopePic": "",
        "fresh": false,
        "id": 16288,
        "link": "https://juejin.cn/post/6900928807483080711",
        "niceDate": "2020-12-02 00:44",
        "niceShareDate": "2020-12-02 00:44",
        "origin": "",
        "prefix": "",
        "projectLink": "",
        "publishTime": 1606841063000,
        "realSuperChapterId": 493,
        "selfVisible": 0,
        "shareDate": 1606841063000,
        "shareUser": "鸿洋",
        "superChapterId": 494,
        "superChapterName": "广场Tab",
        "tags": [],
        "title": "如何理清楚 Android 工程的依赖关系？",
        "type": 0,
        "userId": 2,
        "visible": 0,
        "zan": 0
      },
      {
        "apkLink": "",
        "audit": 1,
        "author": "",
        "canEdit": false,
        "chapterId": 494,
        "chapterName": "广场",
        "collect": false,
        "courseId": 13,
        "desc": "",
        "descMd": "",
        "envelopePic": "",
        "fresh": false,
        "id": 16287,
        "link": "https://www.jianshu.com/p/b8fb92ddbcf2",
        "niceDate": "2020-12-01 21:22",
        "niceShareDate": "2020-12-01 21:22",
        "origin": "",
        "prefix": "",
        "projectLink": "",
        "publishTime": 1606828922000,
        "realSuperChapterId": 493,
        "selfVisible": 0,
        "shareDate": 1606828922000,
        "shareUser": "深红骑士",
        "superChapterId": 494,
        "superChapterName": "广场Tab",
        "tags": [],
        "title": "Fragment 的过去、现在和将来",
        "type": 0,
        "userId": 29303,
        "visible": 0,
        "zan": 0
      },
      {
        "apkLink": "",
        "audit": 1,
        "author": "",
        "canEdit": false,
        "chapterId": 494,
        "chapterName": "广场",
        "collect": false,
        "courseId": 13,
        "desc": "",
        "descMd": "",
        "envelopePic": "",
        "fresh": false,
        "id": 16286,
        "link": "https://www.jianshu.com/p/7121ce8c4932",
        "niceDate": "2020-12-01 20:30",
        "niceShareDate": "2020-12-01 20:30",
        "origin": "",
        "prefix": "",
        "projectLink": "",
        "publishTime": 1606825830000,
        "realSuperChapterId": 493,
        "selfVisible": 0,
        "shareDate": 1606825830000,
        "shareUser": "你怕是很皮哦",
        "superChapterId": 494,
        "superChapterName": "广场Tab",
        "tags": [],
        "title": "Gradle源码分析（三）",
        "type": 0,
        "userId": 40219,
        "visible": 0,
        "zan": 0
      },
      {
        "apkLink": "",
        "audit": 1,
        "author": "",
        "canEdit": false,
        "chapterId": 494,
        "chapterName": "广场",
        "collect": false,
        "courseId": 13,
        "desc": "",
        "descMd": "",
        "envelopePic": "",
        "fresh": false,
        "id": 16281,
        "link": "https://blog.csdn.net/dx1330147540/article/details/110399809?utm_medium=distribute.pc_category.none-task-blog-hot-10.nonecase&amp;depth_1-utm_source=distribute.pc_category.none-task-blog-hot-10.nonecase",
        "niceDate": "2020-12-01 13:56",
        "niceShareDate": "2020-12-01 13:56",
        "origin": "",
        "prefix": "",
        "projectLink": "",
        "publishTime": 1606802183000,
        "realSuperChapterId": 493,
        "selfVisible": 0,
        "shareDate": 1606802183000,
        "shareUser": "AprilEyon",
        "superChapterId": 494,
        "superChapterName": "广场Tab",
        "tags": [],
        "title": "WebView与JS交互案例",
        "type": 0,
        "userId": 3559,
        "visible": 0,
        "zan": 0
      },
      {
        "apkLink": "",
        "audit": 1,
        "author": "",
        "canEdit": false,
        "chapterId": 494,
        "chapterName": "广场",
        "collect": false,
        "courseId": 13,
        "desc": "",
        "descMd": "",
        "envelopePic": "",
        "fresh": false,
        "id": 16279,
        "link": "https://juejin.cn/post/6900739309826441224",
        "niceDate": "2020-12-01 09:56",
        "niceShareDate": "2020-12-01 09:56",
        "origin": "",
        "prefix": "",
        "projectLink": "",
        "publishTime": 1606787813000,
        "realSuperChapterId": 493,
        "selfVisible": 0,
        "shareDate": 1606787813000,
        "shareUser": "goweii",
        "superChapterId": 494,
        "superChapterName": "广场Tab",
        "tags": [],
        "title": "【译】2020 年 Fragment 更新文档（上），该更新知识库啦",
        "type": 0,
        "userId": 20382,
        "visible": 0,
        "zan": 0
      },
      {
        "apkLink": "",
        "audit": 1,
        "author": "",
        "canEdit": false,
        "chapterId": 494,
        "chapterName": "广场",
        "collect": false,
        "courseId": 13,
        "desc": "",
        "descMd": "",
        "envelopePic": "",
        "fresh": false,
        "id": 16212,
        "link": "https://juejin.cn/post/6899246532038656007",
        "niceDate": "2020-11-30 21:31",
        "niceShareDate": "2020-11-26 11:34",
        "origin": "",
        "prefix": "",
        "projectLink": "",
        "publishTime": 1606743100000,
        "realSuperChapterId": 493,
        "selfVisible": 0,
        "shareDate": 1606361692000,
        "shareUser": "AboBack",
        "superChapterId": 494,
        "superChapterName": "广场Tab",
        "tags": [],
        "title": "简洁唯美的 WanAndroid 客户端",
        "type": 0,
        "userId": 75,
        "visible": 0,
        "zan": 0
      },
      {
        "apkLink": "",
        "audit": 1,
        "author": "",
        "canEdit": false,
        "chapterId": 494,
        "chapterName": "广场",
        "collect": false,
        "courseId": 13,
        "desc": "",
        "descMd": "",
        "envelopePic": "",
        "fresh": false,
        "id": 16206,
        "link": "https://juejin.cn/post/6854573214451335175",
        "niceDate": "2020-11-30 21:27",
        "niceShareDate": "2020-11-25 16:52",
        "origin": "",
        "prefix": "",
        "projectLink": "",
        "publishTime": 1606742836000,
        "realSuperChapterId": 493,
        "selfVisible": 0,
        "shareDate": 1606294333000,
        "shareUser": "风之旅人",
        "superChapterId": 494,
        "superChapterName": "广场Tab",
        "tags": [],
        "title": "Android Q &amp;amp; Android 11存储适配(二) FileOperator文件管理框架",
        "type": 0,
        "userId": 2018,
        "visible": 0,
        "zan": 0
      },
      {
        "apkLink": "",
        "audit": 1,
        "author": "",
        "canEdit": false,
        "chapterId": 494,
        "chapterName": "广场",
        "collect": false,
        "courseId": 13,
        "desc": "",
        "descMd": "",
        "envelopePic": "",
        "fresh": false,
        "id": 16215,
        "link": "https://juejin.cn/post/6898176468661059597",
        "niceDate": "2020-11-30 21:22",
        "niceShareDate": "2020-11-26 13:28",
        "origin": "",
        "prefix": "",
        "projectLink": "",
        "publishTime": 1606742573000,
        "realSuperChapterId": 493,
        "selfVisible": 0,
        "shareDate": 1606368536000,
        "shareUser": "Lgxing",
        "superChapterId": 494,
        "superChapterName": "广场Tab",
        "tags": [],
        "title": "Android版本适配",
        "type": 0,
        "userId": 29390,
        "visible": 0,
        "zan": 0
      },
      {
        "apkLink": "",
        "audit": 1,
        "author": "",
        "canEdit": false,
        "chapterId": 494,
        "chapterName": "广场",
        "collect": false,
        "courseId": 13,
        "desc": "",
        "descMd": "",
        "envelopePic": "",
        "fresh": false,
        "id": 16251,
        "link": "https://juejin.cn/post/6899984360963833863",
        "niceDate": "2020-11-30 21:21",
        "niceShareDate": "2020-11-29 10:15",
        "origin": "",
        "prefix": "",
        "projectLink": "",
        "publishTime": 1606742513000,
        "realSuperChapterId": 493,
        "selfVisible": 0,
        "shareDate": 1606616130000,
        "shareUser": "goweii",
        "superChapterId": 494,
        "superChapterName": "广场Tab",
        "tags": [],
        "title": "Tongue Twister-快速集成华为实时语音识别服务玩转绕口令",
        "type": 0,
        "userId": 20382,
        "visible": 1,
        "zan": 0
      }
    ],
    "offset": 20,
    "over": false,
    "pageCount": 115,
    "size": 20,
    "total": 2292
  },
  "errorCode": 0,
  "errorMsg": ""
}